<?xml version="1.0" encoding="UTF-8" standalone="no"?>
<svg
   xmlns:dc="http://purl.org/dc/elements/1.1/"
   xmlns:cc="http://creativecommons.org/ns#"
   xmlns:rdf="http://www.w3.org/1999/02/22-rdf-syntax-ns#"
   xmlns:svg="http://www.w3.org/2000/svg"
   xmlns="http://www.w3.org/2000/svg"
   id="svg3437"
   viewBox="0 0 1310 189"
   style="clip-rule:evenodd;fill-rule:evenodd;image-rendering:optimizeQuality;shape-rendering:geometricPrecision;text-rendering:geometricPrecision"
   version="1.1"
   height="189"
   width="1310"
   xml:space="preserve"><metadata
     id="metadata3482"><rdf:RDF><cc:Work
         rdf:about=""><dc:format>image/svg+xml</dc:format><dc:type
           rdf:resource="http://purl.org/dc/dcmitype/StillImage" /><dc:title></dc:title></cc:Work></rdf:RDF></metadata><defs
     id="defs3439"><style
       id="style3441"
       type="text/css"><![CDATA[
    .str0 {stroke:#EC8660;stroke-width:2.08229}
    .fil0 {fill:#EC8660}
    .fil1 {fill:#EC8660}
   ]]></style></defs><g
     transform="translate(8.25,0)"
     id="Слой_x0020_1"><metadata
       id="CorelCorpID_0Corel-Layer" /><g
       id="_2164003839536" /><g
       id="_2164003838448" /><g
       id="_2164003836336" /><g
       id="_2164003837488" /><g
       id="_2164003837744" /><g
       id="_2164003838256" /><g
       id="_2164003836368" /><g
       id="_2164003837232" /><g
       id="_2164003835280" /><g
       id="_2164003830160" /><g
       id="_2164003831088" /><g
       id="_2164003830864" /><g
       id="_2164003829776" /><g
       id="_2164003828112" /><g
       id="_2164003830032" /><path
       style="fill:#ec8660"
       id="path3460"
       d="m 925,26 c -6,0 -10,5 -10,11 l 0,115 c 0,6 4,10 10,10 l 168,0 c 6,0 10,-4 10,-10 l 0,-115 c 0,-6 -4,-11 -10,-11 l -168,0 0,0 z m 0,8 168,0 c 2,0 3,1 3,3 l 0,11 c 0,1 0,1 0,1 l -174,0 c 0,0 0,0 0,-1 l 0,-11 c 0,-2 1,-3 3,-3 l 0,0 z m -3,23 c 0,0 0,0 0,0 l 174,0 c 0,0 0,0 0,0 0,0 0,0 0,0 l 0,95 c 0,2 -1,3 -3,3 l -168,0 c -2,0 -3,-1 -3,-3 0,-40 0,-95 0,-95 z m 59,23 c -1,0 -2,0 -2,1 l -18,18 c -1,0 -1,1 -1,2 0,1 0,2 1,3 l 18,18 c 0,0 1,1 2,1 1,0 2,-1 3,-1 2,-2 2,-4 0,-6 l -15,-15 15,-14 c 2,-2 2,-4 0,-6 -1,-1 -2,-1 -3,-1 l 0,0 z m 47,0 c -1,0 -2,0 -3,1 -1,2 -1,4 0,6 l 15,14 -15,15 c -1,2 -1,4 0,6 1,0 2,1 3,1 1,0 2,-1 3,-1 l 17,-18 c 1,-1 1,-2 1,-3 0,-1 0,-2 -1,-2 l -14,-18 c -1,-1 -2,-1 -3,-1 l -3,0 z m -14,0 c -1,0 -3,1 -4,2 l -18,36 c -1,2 0,5 2,6 0,0 1,0 2,0 1,0 2,-1 3,-2 l 18,-36 c 1,-2 0,-5 -1,-5 -1,-1 -1,-1 -2,-1 l 0,0 z"
       class="fil0" /><g
       id="_2164003829232"><path
         style="fill:#ec8660"
         id="path3463"
         d="m 275,0 -112,15 0,159 112,15 0,-16 c 0,0 0,0 1,0 l 57,0 c 6,0 12,-6 12,-12 l 0,-133 c 0,-7 -6,-12 -12,-12 l -57,0 c -1,0 -1,0 -1,0 l 0,-16 0,0 z m 1,23 57,0 c 3,0 5,2 5,5 l 0,133 c 0,2 -2,5 -5,5 l -57,0 c -1,0 -1,0 -1,0 l 0,-49 c 0,0 1,0 2,0 l 19,-4 c 0,0 0,0 1,-1 0,0 0,0 0,0 l 0,0 33,-33 -3,-2 -30,31 -14,-14 31,-30 -2,-2 -33,32 0,0 c 0,1 -1,1 -1,2 l -3,15 0,-88 c 0,0 0,0 1,0 l 0,0 z m 40,43 -27,28 4,4 28,-28 -5,-4 z m -67,2 c 5,0 9,1 11,3 3,1 4,4 4,8 0,5 -4,8 -7,10 l 0,0 c 3,1 4,4 5,7 1,5 3,10 4,12 l -10,-1 c -1,-1 -2,-4 -3,-9 -1,-5 -3,-6 -6,-6 l -3,0 0,15 -9,0 0,-38 c 3,-1 7,-1 12,-1 1,0 2,0 2,0 z m -41,1 c 7,0 12,1 15,3 4,3 7,8 7,15 0,7 -3,12 -7,15 -3,3 -9,5 -16,4 -5,0 -7,0 -9,0 l 0,-36 c 3,-1 6,-1 10,-1 l 0,0 z m -23,0 c 4,0 7,1 8,1 l -2,7 c -1,-1 -3,-1 -6,-1 -6,0 -11,4 -11,12 0,7 4,11 11,11 2,0 5,0 6,-1 l 2,7 c -2,0 -5,1 -9,1 -11,0 -17,-8 -17,-18 0,-12 8,-19 18,-19 l 0,0 z m 63,5 c -2,0 -3,1 -4,1 l 0,10 4,0 c 4,0 7,-2 7,-5 0,-4 -3,-6 -7,-6 l 0,0 z m -39,1 c -2,0 -3,0 -3,1 l 0,24 c 0,0 1,0 2,0 8,0 13,-4 13,-13 0,-8 -5,-12 -12,-12 l 0,0 z m 72,21 c 0,0 0,0 0,0 l 14,14 c 0,0 0,1 0,1 l 0,0 0,0 0,0 -12,2 -5,-5 3,-12 c 0,0 0,0 0,0 l 0,0 0,0 z"
         class="fil0" /></g><path
       style="fill:#ec8660"
       id="path3465"
       d="m 399,15 c -3,0 -6,1 -7,3 l -1,1 c -1,1 -3,4 -3,7 l 0,15 c 0,2 2,3 3,3 2,0 3,-1 3,-3 l 0,-15 c 0,-1 1,-3 2,-3 l 0,0 c 1,-1 2,-2 3,-2 l 88,0 c 1,0 2,1 3,2 l 0,0 c 1,0 1,2 1,3 l 0,15 c 0,2 2,3 3,3 2,0 3,-1 3,-3 l 0,-15 c 0,-3 -1,-6 -3,-8 l 0,0 c -2,-2 -5,-3 -7,-3 l -88,0 0,0 z m -32,38 c -5,0 -10,2 -13,6 -4,3 -6,8 -6,13 l 0,60 c 0,5 2,10 6,13 3,4 8,6 13,6 l 9,0 c 2,0 3,-2 3,-3 0,-2 -1,-3 -3,-3 l 0,0 -9,0 c -4,0 -7,-2 -9,-4 -2,-2 -4,-5 -4,-9 l 0,-60 c 0,-4 2,-7 4,-9 2,-2 5,-4 9,-4 l 152,0 c 3,0 6,2 9,4 2,2 3,5 3,9 l 0,60 c 0,4 -1,7 -3,9 -3,2 -6,4 -9,4 l -10,0 c -1,0 -3,1 -3,3 0,1 2,3 3,3 l 10,0 c 5,0 10,-2 13,-6 3,-3 5,-8 5,-13 l 0,-60 c 0,-5 -2,-10 -5,-13 -3,-4 -8,-6 -13,-6 l -152,0 0,0 z m 7,17 c -2,0 -4,1 -6,3 l 0,0 c -1,2 -2,4 -2,6 0,2 0,4 2,6 -4,-5 0,0 0,0 2,2 4,3 6,3 3,0 5,-1 6,-3 2,-1 3,-3 3,-6 0,-2 -1,-4 -2,-6 l -1,0 c -1,-2 -3,-3 -6,-3 l 0,0 z m 23,6 c -2,0 -3,2 -3,3 0,2 1,3 3,3 l 114,0 c 2,0 3,-1 3,-3 0,-1 -1,-3 -3,-3 l -114,0 0,0 z m -23,0 c 1,0 2,1 2,1 l 0,0 c 1,1 1,1 1,2 0,1 0,2 -1,2 0,1 -1,1 -2,1 -1,0 -1,0 -2,-1 l 0,0 c 0,0 -1,-1 -1,-2 0,-1 1,-1 1,-2 l 0,0 c 1,0 1,-1 2,-1 l 0,0 z m 17,38 c -1,0 -3,2 -3,3 l 0,46 c 0,3 2,5 3,7 -4,-5 0,0 1,0 1,2 4,4 7,4 l 88,0 c 2,0 5,-2 7,-3 l 0,-1 c 2,-2 3,-4 3,-7 l 0,-46 c 0,-1 -1,-3 -3,-3 l -103,0 0,0 z m 3,6 97,0 0,43 c 0,1 0,2 -1,3 l 0,0 c -1,1 -2,2 -3,2 l -88,0 c -1,0 -2,-1 -3,-2 l 0,0 c -1,-1 -2,-2 -2,-3 l 0,-43 0,0 z m 20,10 c -1,0 -3,1 -3,2 0,2 2,3 3,3 l 57,0 c 2,0 3,-1 3,-3 0,-1 -1,-2 -3,-2 l -57,0 0,0 z m 0,15 c -1,0 -3,1 -3,3 0,1 2,3 3,3 l 29,0 c 1,0 3,-2 3,-3 0,-2 -2,-3 -3,-3 l -29,0 0,0 z"
       class="fil0" /><g
       id="_2164003895696"><path
         style="fill:#ec8660"
         id="path3468"
         d="m 902,110 -26,0 0,-44 c 0,-2 -1,-3 -3,-3 l -20,0 0,-29 c 2,-3 3,-6 3,-11 0,-10 -8,-21 -9,-22 0,-1 -1,-1 -2,-1 -1,0 -2,0 -3,1 0,1 -8,12 -8,22 0,5 1,9 3,11 l 0,29 -9,0 0,-29 c 2,-3 3,-6 3,-11 0,-10 -8,-21 -8,-22 -1,-1 -2,-1 -3,-1 -1,0 -2,0 -2,1 -1,1 -9,12 -9,22 0,5 2,9 3,11 l 0,29 -8,0 0,-29 c 1,-3 2,-6 2,-11 0,-10 -8,-21 -8,-22 -1,-1 -2,-1 -3,-1 -1,0 -2,0 -2,1 -1,1 -8,12 -8,22 0,5 1,9 3,11 l 0,29 -21,0 c -1,0 -3,1 -3,3 l 0,44 -25,0 c -2,0 -4,2 -4,4 l 0,72 c 0,1 2,3 4,3 l 163,0 c 2,0 3,-2 3,-3 l 0,-72 c 0,-2 -1,-4 -3,-4 l 0,0 z M 845,9 c 2,4 5,9 5,14 0,3 -1,9 -5,9 0,0 0,0 0,0 0,0 0,0 0,0 -4,0 -5,-6 -5,-9 0,-5 3,-10 5,-14 l 0,0 z m 2,29 0,25 -4,0 0,-25 4,0 0,0 z M 820,9 c 2,4 5,9 5,14 0,3 -1,8 -5,9 0,0 0,0 0,0 0,0 0,0 0,0 -4,0 -4,-6 -4,-9 0,-5 2,-10 4,-14 l 0,0 z m 2,29 0,25 -4,0 0,-25 4,0 z M 795,9 c 2,4 5,9 5,14 0,3 -1,8 -4,9 -1,0 -1,0 -1,0 0,0 0,0 0,0 -4,0 -4,-6 -4,-9 0,-5 2,-10 4,-14 l 0,0 z m 2,54 -3,0 0,-25 3,0 0,25 0,0 z m -26,6 99,0 0,14 c -7,13 -22,13 -23,13 l -1,0 c 0,0 0,0 0,0 -16,0 -23,-14 -23,-15 0,-1 -1,-2 -3,-2 l 0,0 c -1,0 -2,1 -3,2 -6,14 -21,15 -24,15 0,0 0,0 0,0 l 0,0 c -14,0 -20,-9 -22,-13 l 0,-14 0,0 z m 128,97 0,17 -157,0 0,-27 c 4,4 11,8 21,8 0,0 1,0 1,0 3,0 19,0 28,-14 4,6 13,14 27,14 2,0 19,1 29,-14 4,6 13,14 27,14 1,0 14,1 24,-8 l 0,10 0,0 z m 0,-42 0,22 c -8,12 -23,12 -24,12 l 0,0 c -17,0 -24,-15 -24,-15 -1,-1 -2,-2 -3,-2 l 0,0 c -1,0 -2,1 -3,2 -7,16 -25,15 -26,15 l 0,0 c -16,0 -23,-14 -24,-15 0,-1 -2,-2 -3,-2 -1,0 -2,1 -3,2 -7,16 -25,15 -26,15 l 0,0 c -11,0 -17,-6 -21,-11 l 0,-30 92,0 c 2,0 3,-2 3,-3 0,-2 -1,-4 -3,-4 l -63,0 0,-17 c 4,5 11,9 22,9 0,0 0,0 0,0 3,0 18,0 27,-13 4,5 12,13 26,13 0,0 0,0 1,0 1,0 14,0 23,-9 l 0,17 -10,0 c -1,0 -3,2 -3,4 0,1 2,3 3,3 l 39,0 0,7 0,0 z"
         class="fil0" /></g><path
       style="fill:#ec8660"
       id="path3470"
       d="m 670,32 c -2,0 -5,0 -7,0 -24,0 -48,0 -71,0 -4,1 -4,6 -6,9 -16,38 -33,75 -49,112 0,4 4,5 7,4 6,0 12,1 17,0 4,-3 7,-17 10,-19 l 30,0 c -2,5 -5,10 -7,16 0,4 6,3 9,3 5,0 11,1 16,0 3,-3 3,-8 5,-12 3,-5 5,-11 8,-16 4,9 7,18 12,27 3,3 8,1 11,1 4,0 9,1 13,-1 3,-3 -2,-7 -2,-10 0,-3 -6,-8 -2,-8 l 29,0 c 2,6 5,13 8,18 3,2 8,1 12,1 4,0 8,1 12,-1 3,-3 -2,-7 -2,-10 -16,-38 -33,-75 -49,-113 -1,-1 -3,-1 -4,-1 l 0,0 z m -76,7 69,0 c -16,37 -32,74 -48,111 l -12,0 c 2,-5 5,-10 7,-16 -1,-4 -6,-3 -9,-3 -11,0 -23,0 -34,0 -4,3 -7,16 -10,19 l -11,0 c 16,-37 32,-74 48,-111 l 0,0 z m 76,2 1,2 c 15,36 31,72 46,107 l -11,0 c -3,-6 -5,-12 -9,-18 -3,-2 -8,0 -12,-1 -10,0 -19,0 -29,0 -4,2 -2,6 -1,9 l 5,10 -12,0 c -4,-10 -8,-20 -13,-30 12,-26 23,-53 35,-79 l 0,0 z m -36,20 c -12,0 -24,0 -37,0 -4,0 -4,6 0,7 13,0 26,0 38,0 4,-1 3,-7 -1,-7 l 0,0 z m -9,25 c -12,0 -25,0 -37,0 -5,0 -4,8 1,7 13,0 25,0 37,0 4,-1 3,-7 -1,-7 l 0,0 z"
       class="fil0" /><path
       style="fill:#ec8660"
       id="path3472"
       d="m 51,0 0,78 -23,0 0,0 -6,-27 c 0,0 0,0 -1,0 0,0 0,0 0,0 -3,1 -7,1 -9,1 -2,0 -4,0 -6,0 0,0 -1,1 0,1 l 5,25 -8,0 0,89 c 0,12 10,22 22,22 l 82,0 c 12,0 22,-10 22,-22 L 129,78 113,78 124,41 97,33 85,78 78,78 78,0 51,0 51,0 Z M 4,7 c 0,0 0,0 0,0 0,1 -1,3 -2,5 -1,4 -3,10 -4,15 0,6 -1,11 1,15 1,4 4,7 10,7 1,1 2,1 3,1 0,0 0,0 0,0 0,0 0,0 0,0 0,0 1,0 1,0 4,0 6,-1 8,-2 1,-1 2,-2 2,-4 0,-2 -1,-5 -3,-8 C 18,29 12,19 4,7 l 0,0 z m 53,2 14,0 0,69 -10,0 -4,0 0,-69 z m 61,0 c 0,0 -1,0 -1,1 l -17,19 c 0,0 0,1 0,1 0,0 0,1 0,1 l 23,6 c 0,0 0,0 0,0 0,0 1,-1 1,-1 0,0 0,0 0,0 l -5,-26 c 0,0 -1,-1 -1,-1 0,0 0,0 0,0 l 0,0 z m -2,10 1,11 -8,-3 7,-8 z M 7,20 c 5,6 8,11 9,15 1,2 2,3 2,5 0,1 -1,2 -2,3 -1,1 -3,1 -5,1 0,0 0,0 -1,0 l 0,0 c 0,0 -1,0 -1,0 0,0 0,0 0,0 0,0 0,0 0,0 C 6,44 3,42 3,39 2,37 2,34 2,31 c 1,-3 2,-6 2,-8 1,-1 1,-2 1,-2 0,-1 0,-1 1,-1 0,0 0,0 0,0 0,0 0,0 0,0 l 0,0 1,0 0,0 z m 11,37 5,21 -7,0 c -1,-6 -3,-15 -5,-20 3,0 5,0 7,-1 l 0,0 z m -8,28 112,0 0,78 c 0,11 -9,20 -20,20 l -73,0 c -10,0 -19,-9 -19,-20 l 0,-78 z"
       class="fil0" /><path
       style="fill:#ec8660;stroke:#ec8660;stroke-width:2.08228993"
       id="path3474"
       d="m 1207,85 c 0,-1 -1,-1 -1,-1 l -3,-1 c 2,-11 -4,-21 -14,-24 -10,-3 -22,5 -26,17 -3,13 3,26 13,29 7,2 15,-1 21,-7 0,-1 1,-2 0,-3 -1,-1 -2,-1 -3,0 -4,5 -11,7 -16,6 -9,-3 -14,-13 -11,-24 3,-10 12,-16 21,-14 8,2 13,10 12,19 l -3,-1 c 0,0 -1,0 -1,1 0,0 0,1 0,1 l 3,7 c 0,1 0,1 0,1 0,0 1,0 1,0 l 6,-5 c 1,0 1,-1 1,-1 z"
       class="fil1 str0" /><path
       style="fill:#ec8660;stroke:#ec8660;stroke-width:2.08228993"
       id="path3476"
       d="m 1188,67 c -1,0 -2,0 -2,2 l -4,9 c -1,1 -2,2 -2,3 -1,2 0,4 2,5 0,0 1,0 1,0 l 5,6 c 1,0 1,0 1,0 1,0 1,0 2,-1 1,0 1,-2 0,-3 l -5,-6 c 0,-1 0,-2 0,-3 l 3,-9 c 1,-2 0,-3 -1,-3 z m -5,12 c 2,0 3,2 2,3 0,2 -1,3 -3,3 -1,0 -2,-2 -1,-4 0,-1 1,-2 2,-2 z"
       class="fil1 str0" /><path
       style="fill:#ec8660"
       id="path3478"
       d="m 1245,32 c -2,0 -5,0 -7,0 -24,0 -47,0 -71,0 -4,1 -4,6 -6,9 -16,38 -33,75 -49,112 0,4 5,5 7,4 6,0 12,1 18,0 3,-3 3,-7 5,-11 2,-2 2,-7 5,-8 l 29,0 c -2,5 -5,10 -7,16 1,4 6,3 9,3 5,0 11,1 16,0 3,-3 4,-8 6,-12 2,-5 4,-11 7,-16 4,9 8,18 12,27 3,2 8,1 12,1 4,0 8,1 12,-1 3,-3 -1,-7 -2,-10 0,-3 -5,-8 -2,-8 l 29,0 c 3,6 5,13 8,18 4,2 8,1 12,1 4,0 9,1 12,-1 3,-3 -1,-7 -2,-10 -16,-38 -32,-75 -49,-113 -1,-1 -2,-1 -4,-1 l 0,0 z m -75,7 68,0 c -16,37 -32,74 -48,111 l -12,0 c 2,-5 5,-10 7,-16 0,-4 -6,-3 -9,-3 -11,0 -22,0 -34,0 -3,2 -3,7 -5,10 -2,3 -3,7 -5,9 l -11,0 c 16,-37 32,-74 49,-111 l 0,0 z m 75,2 1,2 c 16,36 31,72 46,107 l -11,0 c -3,-6 -5,-12 -9,-18 -3,-2 -8,0 -12,-1 -9,0 -19,0 -29,0 -4,2 -2,6 0,9 l 4,10 -11,0 c -5,-10 -9,-20 -13,-30 11,-26 23,-53 34,-79 l 0,0 z"
       class="fil0" /></g></svg>