<?xml version="1.0" encoding="UTF-8"?>
<!DOCTYPE svg PUBLIC "-//W3C//DTD SVG 1.1//EN" "http://www.w3.org/Graphics/SVG/1.1/DTD/svg11.dtd">
<!-- Creator: CorelDRAW X7 -->
<svg xmlns="http://www.w3.org/2000/svg" xml:space="preserve" width="1301px" height="189px" version="1.1" style="shape-rendering:geometricPrecision; text-rendering:geometricPrecision; image-rendering:optimizeQuality; fill-rule:evenodd; clip-rule:evenodd"
viewBox="0 0 1301 189"
 xmlns:xlink="http://www.w3.org/1999/xlink">
 <defs>
  <style type="text/css">
   <![CDATA[
    .str0 {stroke:#EC8660;stroke-width:2.08229}
    .fil0 {fill:#EC8660}
    .fil1 {fill:#EC8660}
   ]]>
  </style>
 </defs>
 <g id="Слой_x0020_1">
  <metadata id="CorelCorpID_0Corel-Layer"/>
  <g id="_2164003839536">
  </g>
  <g id="_2164003838448">
  </g>
  <g id="_2164003836336">
  </g>
  <g id="_2164003837488">
  </g>
  <g id="_2164003837744">
  </g>
  <g id="_2164003838256">
  </g>
  <g id="_2164003836368">
  </g>
  <g id="_2164003837232">
  </g>
  <g id="_2164003835280">
  </g>
  <g id="_2164003830160">
  </g>
  <g id="_2164003831088">
  </g>
  <g id="_2164003830864">
  </g>
  <g id="_2164003829776">
  </g>
  <g id="_2164003828112">
  </g>
  <g id="_2164003830032">
  </g>
  <path class="fil0" d="M925 26c-6,0 -10,5 -10,11l0 115c0,6 4,10 10,10l168 0c6,0 10,-4 10,-10l0 -115c0,-6 -4,-11 -10,-11l-168 0 0 0zm0 8l168 0c2,0 3,1 3,3l0 11c0,1 0,1 0,1l-174 0c0,0 0,0 0,-1l0 -11c0,-2 1,-3 3,-3l0 0zm-3 23c0,0 0,0 0,0l174 0c0,0 0,0 0,0 0,0 0,0 0,0l0 95c0,2 -1,3 -3,3l-168 0c-2,0 -3,-1 -3,-3 0,-40 0,-95 0,-95zm59 23c-1,0 -2,0 -2,1l-18 18c-1,0 -1,1 -1,2 0,1 0,2 1,3l18 18c0,0 1,1 2,1 1,0 2,-1 3,-1 2,-2 2,-4 0,-6l-15 -15 15 -14c2,-2 2,-4 0,-6 -1,-1 -2,-1 -3,-1l0 0zm47 0c-1,0 -2,0 -3,1 -1,2 -1,4 0,6l15 14 -15 15c-1,2 -1,4 0,6 1,0 2,1 3,1 1,0 2,-1 3,-1l17 -18c1,-1 1,-2 1,-3 0,-1 0,-2 -1,-2l-14 -18c-1,-1 -2,-1 -3,-1l-3 0zm-14 0c-1,0 -3,1 -4,2l-18 36c-1,2 0,5 2,6 0,0 1,0 2,0 1,0 2,-1 3,-2l18 -36c1,-2 0,-5 -1,-5 -1,-1 -1,-1 -2,-1l0 0z"/>
  <g id="_2164003829232">
   <path class="fil0" d="M275 0l-112 15 0 159 112 15 0 -16c0,0 0,0 1,0l57 0c6,0 12,-6 12,-12l0 -133c0,-7 -6,-12 -12,-12l-57 0c-1,0 -1,0 -1,0l0 -16 0 0zm1 23l57 0c3,0 5,2 5,5l0 133c0,2 -2,5 -5,5l-57 0c-1,0 -1,0 -1,0l0 -49c0,0 1,0 2,0l19 -4c0,0 0,0 1,-1 0,0 0,0 0,0l0 0 33 -33 -3 -2 -30 31 -14 -14 31 -30 -2 -2 -33 32 0 0c0,1 -1,1 -1,2l-3 15 0 -88c0,0 0,0 1,0l0 0zm40 43l-27 28 4 4 28 -28 -5 -4zm-67 2c5,0 9,1 11,3 3,1 4,4 4,8 0,5 -4,8 -7,10l0 0c3,1 4,4 5,7 1,5 3,10 4,12l-10 -1c-1,-1 -2,-4 -3,-9 -1,-5 -3,-6 -6,-6l-3 0 0 15 -9 0 0 -38c3,-1 7,-1 12,-1 1,0 2,0 2,0zm-41 1c7,0 12,1 15,3 4,3 7,8 7,15 0,7 -3,12 -7,15 -3,3 -9,5 -16,4 -5,0 -7,0 -9,0l0 -36c3,-1 6,-1 10,-1l0 0zm-23 0c4,0 7,1 8,1l-2 7c-1,-1 -3,-1 -6,-1 -6,0 -11,4 -11,12 0,7 4,11 11,11 2,0 5,0 6,-1l2 7c-2,0 -5,1 -9,1 -11,0 -17,-8 -17,-18 0,-12 8,-19 18,-19l0 0zm63 5c-2,0 -3,1 -4,1l0 10 4 0c4,0 7,-2 7,-5 0,-4 -3,-6 -7,-6l0 0zm-39 1c-2,0 -3,0 -3,1l0 24c0,0 1,0 2,0 8,0 13,-4 13,-13 0,-8 -5,-12 -12,-12l0 0zm72 21c0,0 0,0 0,0l14 14c0,0 0,1 0,1l0 0 0 0 0 0 -12 2 -5 -5 3 -12c0,0 0,0 0,0l0 0 0 0z"/>
  </g>
  <path class="fil0" d="M399 15c-3,0 -6,1 -7,3l-1 1c-1,1 -3,4 -3,7l0 15c0,2 2,3 3,3 2,0 3,-1 3,-3l0 -15c0,-1 1,-3 2,-3l0 0c1,-1 2,-2 3,-2l88 0c1,0 2,1 3,2l0 0c1,0 1,2 1,3l0 15c0,2 2,3 3,3 2,0 3,-1 3,-3l0 -15c0,-3 -1,-6 -3,-8l0 0c-2,-2 -5,-3 -7,-3l-88 0 0 0zm-32 38c-5,0 -10,2 -13,6 -4,3 -6,8 -6,13l0 60c0,5 2,10 6,13 3,4 8,6 13,6l9 0c2,0 3,-2 3,-3 0,-2 -1,-3 -3,-3l0 0 -9 0c-4,0 -7,-2 -9,-4 -2,-2 -4,-5 -4,-9l0 -60c0,-4 2,-7 4,-9 2,-2 5,-4 9,-4l152 0c3,0 6,2 9,4 2,2 3,5 3,9l0 60c0,4 -1,7 -3,9 -3,2 -6,4 -9,4l-10 0c-1,0 -3,1 -3,3 0,1 2,3 3,3l10 0c5,0 10,-2 13,-6 3,-3 5,-8 5,-13l0 -60c0,-5 -2,-10 -5,-13 -3,-4 -8,-6 -13,-6l-152 0 0 0zm7 17c-2,0 -4,1 -6,3l0 0c-1,2 -2,4 -2,6 0,2 0,4 2,6 -4,-5 0,0 0,0 2,2 4,3 6,3 3,0 5,-1 6,-3 2,-1 3,-3 3,-6 0,-2 -1,-4 -2,-6l-1 0c-1,-2 -3,-3 -6,-3l0 0zm23 6c-2,0 -3,2 -3,3 0,2 1,3 3,3l114 0c2,0 3,-1 3,-3 0,-1 -1,-3 -3,-3l-114 0 0 0zm-23 0c1,0 2,1 2,1l0 0c1,1 1,1 1,2 0,1 0,2 -1,2 0,1 -1,1 -2,1 -1,0 -1,0 -2,-1l0 0c0,0 -1,-1 -1,-2 0,-1 1,-1 1,-2l0 0c1,0 1,-1 2,-1l0 0zm17 38c-1,0 -3,2 -3,3l0 46c0,3 2,5 3,7 -4,-5 0,0 1,0 1,2 4,4 7,4l88 0c2,0 5,-2 7,-3l0 -1c2,-2 3,-4 3,-7l0 -46c0,-1 -1,-3 -3,-3l-103 0 0 0zm3 6l97 0 0 43c0,1 0,2 -1,3l0 0c-1,1 -2,2 -3,2l-88 0c-1,0 -2,-1 -3,-2l0 0c-1,-1 -2,-2 -2,-3l0 -43 0 0zm20 10c-1,0 -3,1 -3,2 0,2 2,3 3,3l57 0c2,0 3,-1 3,-3 0,-1 -1,-2 -3,-2l-57 0 0 0zm0 15c-1,0 -3,1 -3,3 0,1 2,3 3,3l29 0c1,0 3,-2 3,-3 0,-2 -2,-3 -3,-3l-29 0 0 0z"/>
  <g id="_2164003895696">
   <path class="fil0" d="M902 110l-26 0 0 -44c0,-2 -1,-3 -3,-3l-20 0 0 -29c2,-3 3,-6 3,-11 0,-10 -8,-21 -9,-22 0,-1 -1,-1 -2,-1 -1,0 -2,0 -3,1 0,1 -8,12 -8,22 0,5 1,9 3,11l0 29 -9 0 0 -29c2,-3 3,-6 3,-11 0,-10 -8,-21 -8,-22 -1,-1 -2,-1 -3,-1 -1,0 -2,0 -2,1 -1,1 -9,12 -9,22 0,5 2,9 3,11l0 29 -8 0 0 -29c1,-3 2,-6 2,-11 0,-10 -8,-21 -8,-22 -1,-1 -2,-1 -3,-1 -1,0 -2,0 -2,1 -1,1 -8,12 -8,22 0,5 1,9 3,11l0 29 -21 0c-1,0 -3,1 -3,3l0 44 -25 0c-2,0 -4,2 -4,4l0 72c0,1 2,3 4,3l163 0c2,0 3,-2 3,-3l0 -72c0,-2 -1,-4 -3,-4l0 0zm-57 -101c2,4 5,9 5,14 0,3 -1,9 -5,9 0,0 0,0 0,0 0,0 0,0 0,0 -4,0 -5,-6 -5,-9 0,-5 3,-10 5,-14l0 0zm2 29l0 25 -4 0 0 -25 4 0 0 0zm-27 -29c2,4 5,9 5,14 0,3 -1,8 -5,9 0,0 0,0 0,0 0,0 0,0 0,0 -4,0 -4,-6 -4,-9 0,-5 2,-10 4,-14l0 0zm2 29l0 25 -4 0 0 -25 4 0zm-27 -29c2,4 5,9 5,14 0,3 -1,8 -4,9 -1,0 -1,0 -1,0 0,0 0,0 0,0 -4,0 -4,-6 -4,-9 0,-5 2,-10 4,-14l0 0zm2 54l-3 0 0 -25 3 0 0 25 0 0zm-26 6l99 0 0 14c-7,13 -22,13 -23,13l-1 0c0,0 0,0 0,0 -16,0 -23,-14 -23,-15 0,-1 -1,-2 -3,-2l0 0c-1,0 -2,1 -3,2 -6,14 -21,15 -24,15 0,0 0,0 0,0l0 0c-14,0 -20,-9 -22,-13l0 -14 0 0zm128 97l0 17 -157 0 0 -27c4,4 11,8 21,8 0,0 1,0 1,0 3,0 19,0 28,-14 4,6 13,14 27,14 2,0 19,1 29,-14 4,6 13,14 27,14 1,0 14,1 24,-8l0 10 0 0zm0 -42l0 22c-8,12 -23,12 -24,12l0 0c-17,0 -24,-15 -24,-15 -1,-1 -2,-2 -3,-2l0 0c-1,0 -2,1 -3,2 -7,16 -25,15 -26,15l0 0c-16,0 -23,-14 -24,-15 0,-1 -2,-2 -3,-2 -1,0 -2,1 -3,2 -7,16 -25,15 -26,15l0 0c-11,0 -17,-6 -21,-11l0 -30 92 0c2,0 3,-2 3,-3 0,-2 -1,-4 -3,-4l-63 0 0 -17c4,5 11,9 22,9 0,0 0,0 0,0 3,0 18,0 27,-13 4,5 12,13 26,13 0,0 0,0 1,0 1,0 14,0 23,-9l0 17 -10 0c-1,0 -3,2 -3,4 0,1 2,3 3,3l39 0 0 7 0 0z"/>
  </g>
  <path class="fil0" d="M670 32c-2,0 -5,0 -7,0 -24,0 -48,0 -71,0 -4,1 -4,6 -6,9 -16,38 -33,75 -49,112 0,4 4,5 7,4 6,0 12,1 17,0 4,-3 7,-17 10,-19l30 0c-2,5 -5,10 -7,16 0,4 6,3 9,3 5,0 11,1 16,0 3,-3 3,-8 5,-12 3,-5 5,-11 8,-16 4,9 7,18 12,27 3,3 8,1 11,1 4,0 9,1 13,-1 3,-3 -2,-7 -2,-10 0,-3 -6,-8 -2,-8l29 0c2,6 5,13 8,18 3,2 8,1 12,1 4,0 8,1 12,-1 3,-3 -2,-7 -2,-10 -16,-38 -33,-75 -49,-113 -1,-1 -3,-1 -4,-1l0 0zm-76 7l69 0c-16,37 -32,74 -48,111l-12 0c2,-5 5,-10 7,-16 -1,-4 -6,-3 -9,-3 -11,0 -23,0 -34,0 -4,3 -7,16 -10,19l-11 0c16,-37 32,-74 48,-111l0 0zm76 2l1 2c15,36 31,72 46,107l-11 0c-3,-6 -5,-12 -9,-18 -3,-2 -8,0 -12,-1 -10,0 -19,0 -29,0 -4,2 -2,6 -1,9l5 10 -12 0c-4,-10 -8,-20 -13,-30 12,-26 23,-53 35,-79l0 0zm-36 20c-12,0 -24,0 -37,0 -4,0 -4,6 0,7 13,0 26,0 38,0 4,-1 3,-7 -1,-7l0 0zm-9 25c-12,0 -25,0 -37,0 -5,0 -4,8 1,7 13,0 25,0 37,0 4,-1 3,-7 -1,-7l0 0z"/>
  <path class="fil0" d="M53 0l0 78 -23 0 0 0 -6 -27c0,0 0,0 -1,0 0,0 0,0 0,0 -3,1 -7,1 -9,1 -2,0 -4,0 -6,0 0,0 -1,1 0,1l5 25 -8 0 0 89c0,12 10,22 22,22l82 0c12,0 22,-10 22,-22l0 -89 -16 0 11 -37 -27 -8 -12 45 -7 0 0 -78 -27 0 0 0zm-47 7c0,0 0,0 0,0 0,1 -1,3 -2,5 -1,4 -3,10 -4,15 0,6 -1,11 1,15 1,4 4,7 10,7 1,1 2,1 3,1 0,0 0,0 0,0 0,0 0,0 0,0 0,0 1,0 1,0 4,0 6,-1 8,-2 1,-1 2,-2 2,-4 0,-2 -1,-5 -3,-8 -2,-7 -8,-17 -16,-29l0 0zm53 2l14 0 0 69 -10 0 -4 0 0 -69zm61 0c0,0 -1,0 -1,1l-17 19c0,0 0,1 0,1 0,0 0,1 0,1l23 6c0,0 0,0 0,0 0,0 1,-1 1,-1 0,0 0,0 0,0l-5 -26c0,0 -1,-1 -1,-1 0,0 0,0 0,0l0 0zm-2 10l1 11 -8 -3 7 -8zm-109 1c5,6 8,11 9,15 1,2 2,3 2,5 0,1 -1,2 -2,3 -1,1 -3,1 -5,1 0,0 0,0 -1,0l0 0c0,0 -1,0 -1,0 0,0 0,0 0,0 0,0 0,0 0,0 -3,0 -6,-2 -6,-5 -1,-2 -1,-5 -1,-8 1,-3 2,-6 2,-8 1,-1 1,-2 1,-2 0,-1 0,-1 1,-1 0,0 0,0 0,0 0,0 0,0 0,0l0 0 1 0 0 0zm11 37l5 21 -7 0c-1,-6 -3,-15 -5,-20 3,0 5,0 7,-1l0 0zm-8 28l112 0 0 78c0,11 -9,20 -20,20l-73 0c-10,0 -19,-9 -19,-20l0 -78z"/>
  <path class="fil1 str0" d="M1207 85c0,-1 -1,-1 -1,-1l-3 -1c2,-11 -4,-21 -14,-24 -10,-3 -22,5 -26,17 -3,13 3,26 13,29 7,2 15,-1 21,-7 0,-1 1,-2 0,-3 -1,-1 -2,-1 -3,0 -4,5 -11,7 -16,6 -9,-3 -14,-13 -11,-24 3,-10 12,-16 21,-14 8,2 13,10 12,19l-3 -1c0,0 -1,0 -1,1 0,0 0,1 0,1l3 7c0,1 0,1 0,1 0,0 1,0 1,0l6 -5c1,0 1,-1 1,-1z"/>
  <path class="fil1 str0" d="M1188 67c-1,0 -2,0 -2,2l-4 9c-1,1 -2,2 -2,3 -1,2 0,4 2,5 0,0 1,0 1,0l5 6c1,0 1,0 1,0 1,0 1,0 2,-1 1,0 1,-2 0,-3l-5 -6c0,-1 0,-2 0,-3l3 -9c1,-2 0,-3 -1,-3zm-5 12c2,0 3,2 2,3 0,2 -1,3 -3,3 -1,0 -2,-2 -1,-4 0,-1 1,-2 2,-2z"/>
  <path class="fil0" d="M1245 32c-2,0 -5,0 -7,0 -24,0 -47,0 -71,0 -4,1 -4,6 -6,9 -16,38 -33,75 -49,112 0,4 5,5 7,4 6,0 12,1 18,0 3,-3 3,-7 5,-11 2,-2 2,-7 5,-8l29 0c-2,5 -5,10 -7,16 1,4 6,3 9,3 5,0 11,1 16,0 3,-3 4,-8 6,-12 2,-5 4,-11 7,-16 4,9 8,18 12,27 3,2 8,1 12,1 4,0 8,1 12,-1 3,-3 -1,-7 -2,-10 0,-3 -5,-8 -2,-8l29 0c3,6 5,13 8,18 4,2 8,1 12,1 4,0 9,1 12,-1 3,-3 -1,-7 -2,-10 -16,-38 -32,-75 -49,-113 -1,-1 -2,-1 -4,-1l0 0zm-75 7l68 0c-16,37 -32,74 -48,111l-12 0c2,-5 5,-10 7,-16 0,-4 -6,-3 -9,-3 -11,0 -22,0 -34,0 -3,2 -3,7 -5,10 -2,3 -3,7 -5,9l-11 0c16,-37 32,-74 49,-111l0 0zm75 2l1 2c16,36 31,72 46,107l-11 0c-3,-6 -5,-12 -9,-18 -3,-2 -8,0 -12,-1 -9,0 -19,0 -29,0 -4,2 -2,6 0,9l4 10 -11 0c-5,-10 -9,-20 -13,-30 11,-26 23,-53 34,-79l0 0z"/>
 </g>
</svg>
